{
  "respCo": "0000",
  "pageInfo": {
    "endRow": 10,
    "firstPage": 1,
    "hasNextPage": true,
    "hasPreviousPage": false,
    "isFirstPage": true,
    "isLastPage": false,
    "lastPage": 2,
    "list": [
      {
        "createdTime": 1525502958000,
        "id": 1,
        "ip": "0:0:0:0:0:0:0:1",
        "isDeleted": 0,
        "realname": "管理员",
        "updatedTime": 1525566928000,
        "username": "admin"
      },
      {
        "createdTime": 1525567192000,
        "id": 2,
        "ip": "0:0:0:0:0:0:0:1",
        "isDeleted": 0,
        "realname": "管理员",
        "updatedTime": 1525567192000,
        "username": "admin"
      },
      {
        "createdTime": 1525567798000,
        "id": 3,
        "ip": "0:0:0:0:0:0:0:1",
        "isDeleted": 0,
        "realname": "管理员",
        "updatedTime": 1525567798000,
        "username": "admin"
      },
      {
        "createdTime": 1525567945000,
        "id": 4,
        "ip": "0:0:0:0:0:0:0:1",
        "isDeleted": 0,
        "realname": "管理员",
        "updatedTime": 1525567945000,
        "username": "admin"
      },
      {
        "createdTime": 1525568273000,
        "id": 5,
        "ip": "0:0:0:0:0:0:0:1",
        "isDeleted": 0,
        "realname": "管理员",
        "updatedTime": 1525568273000,
        "username": "admin"
      },
      {
        "createdTime": 1525568309000,
        "id": 6,
        "ip": "0:0:0:0:0:0:0:1",
        "isDeleted": 0,
        "realname": "管理员",
        "updatedTime": 1525568309000,
        "username": "admin"
      },
      {
        "createdTime": 1525568444000,
        "id": 7,
        "ip": "0:0:0:0:0:0:0:1",
        "isDeleted": 0,
        "updatedTime": 1525568444000,
        "username": "admin"
      },
      {
        "createdTime": 1525569031000,
        "id": 8,
        "ip": "0:0:0:0:0:0:0:1",
        "isDeleted": 0,
        "updatedTime": 1525569031000,
        "username": "admin"
      },
      {
        "createdTime": 1525587576000,
        "id": 9,
        "ip": "0:0:0:0:0:0:0:1",
        "isDeleted": 0,
        "updatedTime": 1525587576000,
        "username": "admin"
      },
      {
        "createdTime": 1525590463000,
        "id": 10,
        "ip": "0:0:0:0:0:0:0:1",
        "isDeleted": 0,
        "updatedTime": 1525590463000,
        "username": "admin"
      }
    ],
    "navigatePages": 8,
    "navigatepageNums": [
      1,
      2
    ],
    "nextPage": 2,
    "orderBy": "",
    "pageNum": 1,
    "pageSize": 10,
    "pages": 2,
    "prePage": 0,
    "size": 10,
    "startRow": 1,
    "total": 13
  },
  "respMsg": "操作成功"
}
